module bitbucket.com/karakaiyuliia/bookings

go 1.17

require (
	github.com/Masterminds/semver/v3 v3.1.1 // indirect
	github.com/alexedwards/scs/v2 v2.4.0 // indirect
	github.com/asaskevich/govalidator v0.0.0-20210307081110-f21760c49a8d // indirect
	github.com/aymerick/douceur v0.2.0 // indirect
	github.com/cockroachdb/cockroach-go v2.0.1+incompatible // indirect
	github.com/fatih/color v1.13.0 // indirect
	github.com/fatih/structs v1.1.0 // indirect
	github.com/go-chi/chi/v5 v5.0.4 // indirect
	github.com/go-sql-driver/mysql v1.6.0 // indirect
	github.com/gobuffalo/attrs v1.0.1 // indirect
	github.com/gobuffalo/envy v1.10.1 // indirect
	github.com/gobuffalo/fizz v1.14.0 // indirect
	github.com/gobuffalo/flect v0.2.4 // indirect
	github.com/gobuffalo/genny v0.6.0 // indirect
	github.com/gobuffalo/genny/v2 v2.0.8 // indirect
	github.com/gobuffalo/github_flavored_markdown v1.1.1 // indirect
	github.com/gobuffalo/helpers v0.6.4 // indirect
	github.com/gobuffalo/here v0.6.0 // indirect
	github.com/gobuffalo/logger v1.0.6 // indirect
	github.com/gobuffalo/nulls v0.4.1 // indirect
	github.com/gobuffalo/packd v1.0.1 // indirect
	github.com/gobuffalo/packr/v2 v2.8.3 // indirect
	github.com/gobuffalo/plush v3.8.3+incompatible // indirect
	github.com/gobuffalo/plush/v4 v4.1.9 // indirect
	github.com/gobuffalo/pop v4.13.1+incompatible // indirect
	github.com/gobuffalo/pop/v6 v6.0.1 // indirect
	github.com/gobuffalo/tags/v3 v3.1.2 // indirect
	github.com/gobuffalo/validate v2.0.4+incompatible // indirect
	github.com/gobuffalo/validate/v3 v3.3.1 // indirect
	github.com/gofrs/uuid v4.2.0+incompatible // indirect
	github.com/gorilla/css v1.0.0 // indirect
	github.com/inconshreveable/mousetrap v1.0.0 // indirect
	github.com/jackc/chunkreader/v2 v2.0.1 // indirect
	github.com/jackc/pgconn v1.10.1 // indirect
	github.com/jackc/pgio v1.0.0 // indirect
	github.com/jackc/pgpassfile v1.0.0 // indirect
	github.com/jackc/pgproto3/v2 v2.1.1 // indirect
	github.com/jackc/pgservicefile v0.0.0-20200714003250-2b9c44734f2b // indirect
	github.com/jackc/pgtype v1.8.1 // indirect
	github.com/jackc/pgx v3.6.2+incompatible // indirect
	github.com/jackc/pgx/v4 v4.13.0 // indirect
	github.com/jmoiron/sqlx v1.3.4 // indirect
	github.com/joho/godotenv v1.4.0 // indirect
	github.com/justinas/nosurf v1.1.1 // indirect
	github.com/karrick/godirwalk v1.16.1 // indirect
	github.com/kballard/go-shellquote v0.0.0-20180428030007-95032a82bc51 // indirect
	github.com/lib/pq v1.10.4 // indirect
	github.com/luna-duclos/instrumentedsql v1.1.3 // indirect
	github.com/markbates/errx v1.1.0 // indirect
	github.com/markbates/oncer v1.0.0 // indirect
	github.com/markbates/safe v1.0.1 // indirect
	github.com/mattn/go-colorable v0.1.9 // indirect
	github.com/mattn/go-isatty v0.0.14 // indirect
	github.com/mattn/go-sqlite3 v1.14.9 // indirect
	github.com/microcosm-cc/bluemonday v1.0.16 // indirect
	github.com/pkg/errors v0.9.1 // indirect
	github.com/rogpeppe/go-internal v1.8.0 // indirect
	github.com/sergi/go-diff v1.2.0 // indirect
	github.com/sirupsen/logrus v1.8.1 // indirect
	github.com/sourcegraph/annotate v0.0.0-20160123013949-f4cad6c6324d // indirect
	github.com/sourcegraph/syntaxhighlight v0.0.0-20170531221838-bd320f5d308e // indirect
	github.com/spf13/cobra v1.2.1 // indirect
	github.com/spf13/pflag v1.0.5 // indirect
	github.com/xhit/go-simple-mail/v2 v2.10.0 // indirect
	golang.org/x/crypto v0.0.0-20210711020723-a769d52b0f97 // indirect
	golang.org/x/mod v0.4.2 // indirect
	golang.org/x/net v0.0.0-20211015210444-4f30a5c0130f // indirect
	golang.org/x/sync v0.0.0-20210220032951-036812b2e83c // indirect
	golang.org/x/sys v0.0.0-20210809222454-d867a43fc93e // indirect
	golang.org/x/term v0.0.0-20210927222741-03fcf44c2211 // indirect
	golang.org/x/text v0.3.6 // indirect
	golang.org/x/tools v0.1.7 // indirect
	golang.org/x/xerrors v0.0.0-20200804184101-5ec99f83aff1 // indirect
	gopkg.in/yaml.v2 v2.4.0 // indirect
)
