mode: set
bitbucket.com/karakaiyuliia/bookings/cmd/web/routes.go:12.49,42.2 18 1
bitbucket.com/karakaiyuliia/bookings/cmd/web/main.go:22.13,25.16 2 0
bitbucket.com/karakaiyuliia/bookings/cmd/web/main.go:29.2,37.16 4 0
bitbucket.com/karakaiyuliia/bookings/cmd/web/main.go:25.16,27.3 1 0
bitbucket.com/karakaiyuliia/bookings/cmd/web/main.go:40.18,56.16 10 1
bitbucket.com/karakaiyuliia/bookings/cmd/web/main.go:61.2,69.12 6 1
bitbucket.com/karakaiyuliia/bookings/cmd/web/main.go:56.16,59.3 2 0
bitbucket.com/karakaiyuliia/bookings/cmd/web/middleware.go:10.53,11.71 1 0
bitbucket.com/karakaiyuliia/bookings/cmd/web/middleware.go:11.71,14.3 2 0
bitbucket.com/karakaiyuliia/bookings/cmd/web/middleware.go:17.45,28.2 3 1
bitbucket.com/karakaiyuliia/bookings/cmd/web/middleware.go:30.50,32.2 1 1
